{
    "Servers": {
        "1": {
            "Name": "DB",
            "Group": "Servers",
            "Port": 5432,
            "Username": "postgres",
            "Password": "postgres",
            "Host": "db",
            "MaintenanceDB": "",
            "SSLMode": "prefer"
        }
    }
}
